main.c:143:5:main	8	static
main.c:173:6:USART1_IRQHandler	24	static
main.c:237:6:TIM3_IRQHandler	8	static
main.c:256:6:STOP_SD	8	static
main.c:266:6:WRITE_SD	32	static
main.c:311:6:UPDATE_TEMP	24	static
main.c:350:6:INIT_TIM3	24	static
main.c:394:6:INIT_ADC	80	static
main.c:452:9:READ_ADC	24	static
main.c:467:14:FIND_ADC_TYPE	24	static
main.c:498:10:FIND_RCC_APB	24	static
main.c:511:9:FIND_CHANNEL	24	static
main.c:569:6:INIT_DO	32	static
main.c:589:10:FIND_CLOCK	24	static
main.c:604:9:FIND_PINSOURCE	16	static
main.c:627:6:turnOnlyRed	8	static
main.c:633:6:turnOnlyBlue	8	static
main.c:640:6:turnOnlyGreen	8	static
main.c:648:6:LEDS_INIT	16	static
main.c:671:6:GPIO_Configuration	16	static
main.c:694:6:USART2_Configuration	32	static
main.c:743:9:CE_read_word_BT	24	static
main.c:770:6:CE_send_BT	24	static
