tm_stm32f4_pwm.c:39:17:TM_PWM_InitTimer	72	static
tm_stm32f4_pwm.c:125:17:TM_PWM_InitChannel	16	static
tm_stm32f4_pwm.c:191:17:TM_PWM_SetChannel	48	static
tm_stm32f4_pwm.c:275:17:TM_PWM_SetChannelPercent	24	static
tm_stm32f4_pwm.c:287:17:TM_PWM_SetChannelMicros	24	static
tm_stm32f4_pwm.c:299:17:TM_PWM_INT_InitTIM1Pins	32	static
tm_stm32f4_pwm.c:387:17:TM_PWM_INT_InitTIM2Pins	32	static
tm_stm32f4_pwm.c:481:17:TM_PWM_INT_InitTIM3Pins	32	static
tm_stm32f4_pwm.c:581:17:TM_PWM_INT_InitTIM4Pins	32	static
tm_stm32f4_pwm.c:669:17:TM_PWM_INT_InitTIM5Pins	32	static
tm_stm32f4_pwm.c:757:17:TM_PWM_INT_InitTIM8Pins	32	static
tm_stm32f4_pwm.c:845:17:TM_PWM_INT_InitTIM9Pins	32	static
tm_stm32f4_pwm.c:895:17:TM_PWM_INT_InitTIM10Pins	32	static
tm_stm32f4_pwm.c:926:17:TM_PWM_INT_InitTIM11Pins	32	static
tm_stm32f4_pwm.c:957:17:TM_PWM_INT_InitTIM12Pins	32	static
tm_stm32f4_pwm.c:1007:17:TM_PWM_INT_InitTIM13Pins	32	static
tm_stm32f4_pwm.c:1038:17:TM_PWM_INT_InitTIM14Pins	32	static
